src,dst,packet_size
1,2,1 
1,3,1 
1,4,1 
1,5,1 
1,6,1 
1,3,1 
2,3,1 
2,4,1 
2,5,1 
2,6,1 
1,5,1 
4,5,1 
4,8,1 
4,9,1 
4,1,1 
4,2,1 
4,3,1 
4,5,1 
4,9,1 
1,2,1 
1,4,1 
2,4,1 
5,2,1 
2,5,1 
7,3,1 
3,6,1 
3,10,1 
2,3,1 
3,2,1 
1,3,1 
3,4,1 
1,8,1 